{
	"info": {
		"_postman_id": "0710f18b-adf7-4c58-a834-03c8e446c365",
		"name": "Privy Intern",
		"schema": "https://schema.getpostman.com/json/collection/v2.1.0/collection.json",
		"_exporter_id": "24404399"
	},
	"item": [
		{
			"name": "API Test",
			"event": [
				{
					"listen": "test",
					"script": {
						"exec": [
							"pm.test(\"Status code is 200\", function () {\r",
							"    pm.response.to.have.status(200);\r",
							"});\r",
							"\r",
							"const response = pm.response.json();\r",
							"\r",
							"console.log(response.status);\r",
							"console.log(response['status']);\r",
							"\r",
							"pm.test(\"Status should be OK\", ()=> {\r",
							"    pm.expect(response.status).to.eql(\"OK\")\r",
							"});\r",
							""
						],
						"type": "text/javascript"
					}
				}
			],
			"request": {
				"method": "GET",
				"header": [],
				"url": {
					"raw": "{{BaseUrl}}/status/",
					"host": [
						"{{BaseUrl}}"
					],
					"path": [
						"status",
						""
					]
				}
			},
			"response": []
		},
		{
			"name": "Register API Client",
			"event": [
				{
					"listen": "test",
					"script": {
						"exec": [
							"pm.test(\"Status code is 201\", function () {\r",
							"    pm.response.to.have.status(201);\r",
							"});"
						],
						"type": "text/javascript"
					}
				}
			],
			"request": {
				"method": "POST",
				"header": [],
				"body": {
					"mode": "raw",
					"raw": "{\r\n   \"clientName\": \"Hansel\",\r\n   \"clientEmail\": \"{{$randomFirstName}}@example.com\"\r\n}",
					"options": {
						"raw": {
							"language": "json"
						}
					}
				},
				"url": {
					"raw": "{{BaseUrl}}/api-clients",
					"host": [
						"{{BaseUrl}}"
					],
					"path": [
						"api-clients"
					]
				}
			},
			"response": []
		},
		{
			"name": "List of Books",
			"event": [
				{
					"listen": "test",
					"script": {
						"exec": [
							"pm.test(\"Status code is 200\", function () {\r",
							"    pm.response.to.have.status(200);\r",
							"});\r",
							"\r",
							"const response = pm.response.json();\r",
							"\r",
							"const NonFictionBook = response.filter((book)=> book.available === true);\r",
							"\r",
							"const book = NonFictionBook[0];\r",
							"\r",
							"if (book) {\r",
							"    pm.globals.set(\"BookId\", book.id);\r",
							"}\r",
							"\r",
							"pm.test(\"Book Found\", ()=>{\r",
							"    pm.expect(book).to.be.an('object')\r",
							"    pm.expect(book.available).to.be.true\r",
							"    pm.expect(book.available).to.eql(true)\r",
							"    pm.expect(book.type).to.eql('non-fiction')\r",
							"})\r",
							""
						],
						"type": "text/javascript"
					}
				}
			],
			"request": {
				"method": "GET",
				"header": [],
				"url": {
					"raw": "{{BaseUrl}}/books?type=non-fiction",
					"host": [
						"{{BaseUrl}}"
					],
					"path": [
						"books"
					],
					"query": [
						{
							"key": "type",
							"value": "non-fiction"
						},
						{
							"key": "limit",
							"value": "5",
							"disabled": true
						}
					]
				}
			},
			"response": []
		},
		{
			"name": "Get a single book",
			"event": [
				{
					"listen": "test",
					"script": {
						"exec": [
							"pm.test(\"Status code is 200\", function () {\r",
							"    pm.response.to.have.status(200);\r",
							"});\r",
							"const book = pm.response.json();\r",
							"const bookstock = book['current-stock'];\r",
							"pm.test(\"current-stock > 0\", ()=> {\r",
							"    pm.expect(bookstock).to.be.above(0)\r",
							"});"
						],
						"type": "text/javascript"
					}
				}
			],
			"request": {
				"method": "GET",
				"header": [],
				"url": {
					"raw": "{{BaseUrl}}/books/:id",
					"host": [
						"{{BaseUrl}}"
					],
					"path": [
						"books",
						":id"
					],
					"variable": [
						{
							"key": "id",
							"value": "{{BookId}}"
						}
					]
				}
			},
			"response": []
		},
		{
			"name": "Order",
			"event": [
				{
					"listen": "test",
					"script": {
						"exec": [
							"pm.test(\"Status code is 201\", function () {\r",
							"    pm.response.to.have.status(201);\r",
							"});\r",
							"\r",
							"const response = pm.response.json();\r",
							"pm.globals.set(\"OrderId\", response.orderId);"
						],
						"type": "text/javascript"
					}
				}
			],
			"request": {
				"auth": {
					"type": "bearer",
					"bearer": [
						{
							"key": "token",
							"value": "{{AccessToken}}",
							"type": "string"
						}
					]
				},
				"method": "POST",
				"header": [],
				"body": {
					"mode": "raw",
					"raw": "{\r\n  \"bookId\": 3,\r\n  \"customerName\": \"{{$randomFullName}}\"\r\n}",
					"options": {
						"raw": {
							"language": "json"
						}
					}
				},
				"url": {
					"raw": "{{BaseUrl}}/orders",
					"host": [
						"{{BaseUrl}}"
					],
					"path": [
						"orders"
					]
				}
			},
			"response": []
		},
		{
			"name": "Get All Orders",
			"event": [
				{
					"listen": "test",
					"script": {
						"exec": [
							"pm.test(\"Status code is 200\", function () {\r",
							"    pm.response.to.have.status(200);\r",
							"});"
						],
						"type": "text/javascript"
					}
				}
			],
			"protocolProfileBehavior": {
				"disableBodyPruning": true
			},
			"request": {
				"auth": {
					"type": "bearer",
					"bearer": [
						{
							"key": "token",
							"value": "{{AccessToken}}",
							"type": "string"
						}
					]
				},
				"method": "GET",
				"header": [],
				"body": {
					"mode": "raw",
					"raw": "",
					"options": {
						"raw": {
							"language": "json"
						}
					}
				},
				"url": {
					"raw": "{{BaseUrl}}/orders",
					"host": [
						"{{BaseUrl}}"
					],
					"path": [
						"orders"
					]
				}
			},
			"response": []
		},
		{
			"name": "Get an order",
			"event": [
				{
					"listen": "test",
					"script": {
						"exec": [
							"pm.test(\"Status code is 200\", function () {\r",
							"    pm.response.to.have.status(200);\r",
							"});"
						],
						"type": "text/javascript"
					}
				}
			],
			"protocolProfileBehavior": {
				"disableBodyPruning": true
			},
			"request": {
				"auth": {
					"type": "bearer",
					"bearer": [
						{
							"key": "token",
							"value": "{{AccessToken}}",
							"type": "string"
						}
					]
				},
				"method": "GET",
				"header": [],
				"body": {
					"mode": "raw",
					"raw": "",
					"options": {
						"raw": {
							"language": "json"
						}
					}
				},
				"url": {
					"raw": "{{BaseUrl}}/orders/:orderid",
					"host": [
						"{{BaseUrl}}"
					],
					"path": [
						"orders",
						":orderid"
					],
					"query": [
						{
							"key": "",
							"value": null,
							"disabled": true
						}
					],
					"variable": [
						{
							"key": "orderid",
							"value": "{{OrderId}}"
						}
					]
				}
			},
			"response": []
		},
		{
			"name": "Update Order",
			"event": [
				{
					"listen": "test",
					"script": {
						"exec": [
							"pm.test(\"Status code is 204\", function () {\r",
							"    pm.response.to.have.status(204);\r",
							"});"
						],
						"type": "text/javascript"
					}
				}
			],
			"request": {
				"auth": {
					"type": "bearer",
					"bearer": [
						{
							"key": "token",
							"value": "{{AccessToken}}",
							"type": "string"
						}
					]
				},
				"method": "PATCH",
				"header": [],
				"body": {
					"mode": "raw",
					"raw": "{\r\n  \"customerName\": \"John {{$randomNameSuffix}}\"\r\n}",
					"options": {
						"raw": {
							"language": "json"
						}
					}
				},
				"url": {
					"raw": "{{BaseUrl}}/orders/:orderid",
					"host": [
						"{{BaseUrl}}"
					],
					"path": [
						"orders",
						":orderid"
					],
					"variable": [
						{
							"key": "orderid",
							"value": "{{OrderId}}"
						}
					]
				}
			},
			"response": []
		},
		{
			"name": "Delete Order",
			"event": [
				{
					"listen": "test",
					"script": {
						"exec": [
							"pm.test(\"Status code is 204\", function () {\r",
							"    pm.response.to.have.status(204);\r",
							"});\r",
							"postman.setNextRequest(null)"
						],
						"type": "text/javascript"
					}
				}
			],
			"request": {
				"auth": {
					"type": "bearer",
					"bearer": [
						{
							"key": "token",
							"value": "{{AccessToken}}",
							"type": "string"
						}
					]
				},
				"method": "DELETE",
				"header": [],
				"body": {
					"mode": "raw",
					"raw": "",
					"options": {
						"raw": {
							"language": "json"
						}
					}
				},
				"url": {
					"raw": "{{BaseUrl}}/orders/:orderid",
					"host": [
						"{{BaseUrl}}"
					],
					"path": [
						"orders",
						":orderid"
					],
					"variable": [
						{
							"key": "orderid",
							"value": "{{OrderId}}"
						}
					]
				}
			},
			"response": []
		}
	],
	"event": [
		{
			"listen": "prerequest",
			"script": {
				"type": "text/javascript",
				"exec": [
					""
				]
			}
		},
		{
			"listen": "test",
			"script": {
				"type": "text/javascript",
				"exec": [
					""
				]
			}
		}
	],
	"variable": [
		{
			"key": "BaseUrl",
			"value": "http://simple-books-api.glitch.me"
		},
		{
			"key": "AccessToken",
			"value": "fb3cbedcf0af431890136b7961b6d0385b296bb829f990ebd676a0bfdb00fe95",
			"type": "string"
		}
	]
}